{
    "normals":[1,0,-0,1,0,0,1,0,-0,1,-0,0,1,-0,0,1,0,0,1,2.47843e-07,4.99522e-06,1,4.00496e-07,9.80597e-07,-1,0,0,-1,-0,0,-1,-0,0,-1,0,-0,-1,0,0,-1,-2.47843e-07,-4.99522e-06,-1,-4.00496e-07,-9.80597e-07,0,0.904997,0.425418,0,0.998221,0.0596253,0,0.621201,0.783651,0,-0.318159,0.948037,0,-0.810244,0.586092,0,-1,0,0,-0.836615,-0.547791,0,-0.513178,-0.858282,0,0.586418,-0.810009,0,0.9083,-0.418321,0,0.99667,-0.081542,0,0.951519,0.307589,0,0.575584,-0.817743,0,0.9126,-0.408853,0,0.904996,0.425419,0,0.998221,0.0596252,0,0.621201,0.783652,0,-0.318158,0.948038,0,-0.810244,0.586093,0,-1,9.58517e-07,0,-1,0,0,-0.836616,-0.54779,0,-0.513177,-0.858283,0,0.586419,-0.810008,0,0.908298,-0.418323,0,0.99667,-0.0815408,0,0.951519,0.30759,0,0.575586,-0.817741,0,0.9126,-0.408854,0,-0.836615,-0.547792,0,-0.513181,-0.858281,0,0.586419,-0.810008,0,0.99667,-0.0815397,0,0.9126,-0.408853,0,0.904996,0.425419,0,0.621201,0.783651,0,-0.318159,0.948037,0,-0.810244,0.586092,0,0.586418,-0.810009,0,0.99667,-0.0815409,0,0.951519,0.307589,0,0.575584,-0.817743,0,0.998221,0.0596252,0,-0.810245,0.586092,0,-0.836615,-0.547791,0,-0.513177,-0.858283,0,0.586419,-0.810008,0,0.908298,-0.418323,0,0.575584,-0.817743],
    "vertices":[-45,38.4295,25.3696,-45,39.0684,24.0104,-45,37.3253,26.2449,-45,35.88,25.7598,-45,35.0159,22.382,-45,35.0159,20.3921,-45,35.0159,18.4143,-45,35.6704,15.7338,-45,36.2854,15.3661,-45,37.2189,16.0419,-45,37.8704,18.8791,-45,37.4199,20.2728,-45,38.4334,20.9862,-45,35.0159,24.5652,-45,35.0159,16.7334,-45,39.1531,22.5925,-45,37.7289,17.1493,-45,28.6695,-18.0524,-45,29.3084,-19.4116,-45,27.5653,-17.1771,-45,26.12,-17.6622,-45,25.2559,-21.04,-45,25.2559,-23.0299,-45,25.2559,-25.0077,-45,25.9105,-27.6882,-45,26.5255,-28.0559,-45,27.4589,-27.3801,-45,28.1105,-24.5429,-45,27.6599,-23.1492,-45,28.6735,-22.4358,-45,25.2559,-18.8568,-45,25.2559,-26.6885,-45,29.3931,-20.8295,-45,27.9689,-26.2727,-45,41.4173,-8.09323,-45,42.0562,-9.45239,-45,40.3131,-7.21795,-45,38.8678,-7.703,-45,38.0037,-11.0809,-45,38.0037,-13.0708,-45,38.0037,-15.0485,-45,38.6582,-17.729,-45,39.2732,-18.0967,-45,40.2067,-17.4209,-45,40.8582,-14.5837,-45,40.4077,-13.19,-45,41.4212,-12.4767,-45,38.0037,-8.89758,-45,38.0037,-16.7294,-45,42.1409,-10.8703,-45,40.7167,-16.3136,-45,29.2671,4.05696,-45,29.906,2.6978,-45,28.1629,4.93224,-45,26.7176,4.4472,-45,25.8535,1.06933,-45,25.8535,-0.92057,-45,25.8535,-2.89831,-45,26.508,-5.57883,-45,27.123,-5.94654,-45,28.0565,-5.27075,-45,28.708,-2.43349,-45,28.2575,-1.03985,-45,29.271,-0.326465,-45,25.8535,3.25261,-45,25.8535,-4.57919,-45,29.9907,1.27989,-45,28.5665,-4.16337,-45,49.1854,10.4308,-45,49.8243,9.07167,-45,48.0812,11.3061,-45,46.6359,10.8211,-45,45.7718,7.4432,-45,45.7718,5.4533,-45,45.7718,3.47556,-45,46.4263,0.79504,-45,47.0413,0.427326,-45,47.9748,1.10312,-45,48.6263,3.94038,-45,48.1758,5.33402,-45,49.1894,6.0474,-45,45.7718,9.62648,-45,45.7718,1.79468,-45,49.909,7.65376,-45,48.4848,2.2105,-45.05,38.4295,25.3696,-45.05,39.0684,24.0104,-45.05,37.3253,26.2449,-45.05,35.88,25.7598,-45.05,35.0159,22.382,-45.05,35.0159,20.3921,-45.05,35.0159,18.4143,-45.05,35.6704,15.7338,-45.05,36.2854,15.3661,-45.05,37.2189,16.0419,-45.05,37.8704,18.8791,-45.05,37.4199,20.2728,-45.05,38.4334,20.9862,-45.05,35.0159,24.5652,-45.05,35.0159,16.7334,-45.05,39.1531,22.5925,-45.05,37.7289,17.1493,-45.05,28.6695,-18.0524,-45.05,29.3084,-19.4116,-45.05,27.5653,-17.1771,-45.05,26.12,-17.6622,-45.05,25.2559,-21.04,-45.05,25.2559,-23.0299,-45.05,25.2559,-25.0077,-45.05,25.9105,-27.6882,-45.05,26.5255,-28.0559,-45.05,27.4589,-27.3801,-45.05,28.1105,-24.5429,-45.05,27.6599,-23.1492,-45.05,28.6735,-22.4358,-45.05,25.2559,-18.8568,-45.05,25.2559,-26.6885,-45.05,29.3931,-20.8295,-45.05,27.9689,-26.2727,-45.05,41.4173,-8.09323,-45.05,42.0562,-9.45239,-45.05,40.3131,-7.21795,-45.05,38.8678,-7.703,-45.05,38.0037,-11.0809,-45.05,38.0037,-13.0708,-45.05,38.0037,-15.0485,-45.05,38.6582,-17.729,-45.05,39.2732,-18.0967,-45.05,40.2067,-17.4209,-45.05,40.8582,-14.5837,-45.05,40.4077,-13.19,-45.05,41.4212,-12.4767,-45.05,38.0037,-8.89758,-45.05,38.0037,-16.7294,-45.05,42.1409,-10.8703,-45.05,40.7167,-16.3136,-45.05,29.2671,4.05696,-45.05,29.906,2.6978,-45.05,28.1629,4.93224,-45.05,26.7176,4.4472,-45.05,25.8535,1.06933,-45.05,25.8535,-0.92057,-45.05,25.8535,-2.89831,-45.05,26.508,-5.57883,-45.05,27.123,-5.94654,-45.05,28.0565,-5.27075,-45.05,28.708,-2.43349,-45.05,28.2575,-1.03985,-45.05,29.271,-0.326465,-45.05,25.8535,3.25261,-45.05,25.8535,-4.57919,-45.05,29.9907,1.27989,-45.05,28.5665,-4.16337,-45.05,49.1854,10.4308,-45.05,49.8243,9.07167,-45.05,48.0812,11.3061,-45.05,46.6359,10.8211,-45.05,45.7718,7.4432,-45.05,45.7718,5.4533,-45.05,45.7718,3.47556,-45.05,46.4263,0.79504,-45.05,47.0413,0.427326,-45.05,47.9748,1.10312,-45.05,48.6263,3.94038,-45.05,48.1758,5.33402,-45.05,49.1894,6.0474,-45.05,45.7718,9.62648,-45.05,45.7718,1.79468,-45.05,49.909,7.65376,-45.05,48.4848,2.2105],
    "materials":[{
        "blending":1,
        "DbgName":"Material.003",
        "doubleSided":false,
        "opacity":1,
        "DbgColor":15658734,
        "mapDiffuseAnisotropy":1,
        "wireframe":false,
        "DbgIndex":0,
        "mapDiffuse":"nube.png",
        "depthWrite":true,
        "visible":true,
        "shading":"basic",
        "depthTest":true,
        "vertexColors":false,
        "colorEmissive":[0,0,0],
        "colorDiffuse":[0.8,0.8,0.8],
        "mapDiffuseRepeat":[1,1],
        "mapDiffuseWrap":["repeat","repeat"],
        "transparent":false
    }],
    "faces":[42,9,7,8,0,0,1,2,0,0,0,43,5,6,10,11,0,3,4,5,6,1,1,1,1,43,4,15,1,13,0,7,8,9,10,1,1,1,1,43,10,6,14,16,0,5,4,11,12,0,0,0,0,43,0,3,13,1,0,13,14,10,9,2,2,2,2,43,16,14,7,9,0,12,11,1,0,0,0,0,0,42,11,12,5,0,6,15,3,3,3,3,43,5,12,15,4,0,3,15,8,7,1,1,1,1,42,3,0,2,0,14,13,16,1,1,1,42,26,24,25,0,0,1,2,2,2,2,43,22,23,27,28,0,3,4,5,6,1,1,1,1,43,21,32,18,30,0,7,8,9,10,1,1,1,1,43,27,23,31,33,0,5,4,11,12,0,0,0,0,43,30,18,17,20,0,10,9,13,14,1,1,1,1,43,33,31,24,26,0,12,11,1,0,2,2,2,2,42,28,29,22,0,6,15,3,4,4,4,43,22,29,32,21,0,3,15,8,7,1,1,1,1,42,20,17,19,0,14,13,16,1,1,1,42,43,41,42,0,0,1,2,0,0,0,43,39,40,44,45,0,3,4,5,6,1,1,1,1,43,38,49,35,47,0,7,8,9,10,1,1,1,1,43,44,40,48,50,0,5,4,11,12,0,0,0,0,43,47,35,34,37,0,10,9,13,14,5,5,5,5,43,50,48,41,43,0,12,11,1,0,0,0,0,0,42,45,46,39,0,6,15,3,4,4,4,43,39,46,49,38,0,3,15,8,7,1,1,1,1,42,37,34,36,0,14,13,16,1,1,1,42,60,58,59,0,0,1,2,0,0,0,43,56,57,61,62,0,3,4,5,6,1,1,1,1,43,55,66,52,64,0,7,8,9,10,1,1,1,1,43,61,57,65,67,0,5,4,11,12,0,0,0,0,43,64,52,51,54,0,10,9,13,14,1,1,1,1,43,67,65,58,60,0,12,11,1,0,0,0,0,0,42,62,63,56,0,6,15,3,4,4,4,43,56,63,66,55,0,3,15,8,7,1,1,1,1,42,54,51,53,0,14,13,16,5,5,5,42,77,75,76,0,0,1,2,2,2,2,43,73,74,78,79,0,3,4,5,6,1,1,1,1,43,72,83,69,81,0,7,8,9,10,1,1,1,1,43,78,74,82,84,0,5,4,11,12,0,0,0,0,43,81,69,68,71,0,10,9,13,14,1,1,1,1,43,84,82,75,77,0,12,11,1,0,0,0,0,0,42,79,80,73,0,6,15,3,6,6,6,43,73,80,83,72,0,3,15,8,7,7,7,7,7,42,71,68,70,0,14,13,16,1,1,1,42,94,93,92,0,0,2,1,8,8,8,43,90,96,95,91,0,3,6,5,4,8,8,8,8,43,89,98,86,100,0,7,10,9,8,9,9,9,9,43,95,101,99,91,0,5,12,11,4,8,8,8,8,43,98,88,85,86,0,10,14,13,9,10,10,10,10,43,101,94,92,99,0,12,0,1,11,8,8,8,8,42,96,90,97,0,6,3,15,11,11,11,43,90,89,100,97,0,3,7,8,15,9,9,9,9,42,88,87,85,0,14,16,13,9,9,9,42,111,110,109,0,0,2,1,8,8,8,43,107,113,112,108,0,3,6,5,4,8,8,8,8,43,106,115,103,117,0,7,10,9,8,9,9,9,9,43,112,118,116,108,0,5,12,11,4,8,8,8,8,43,115,105,102,103,0,10,14,13,9,9,9,9,9,43,118,111,109,116,0,12,0,1,11,12,12,12,12,42,113,107,114,0,6,3,15,11,11,11,43,107,106,117,114,0,3,7,8,15,9,9,9,9,42,105,104,102,0,14,16,13,9,9,9,42,128,127,126,0,0,2,1,8,8,8,43,124,130,129,125,0,3,6,5,4,8,8,8,8,43,123,132,120,134,0,7,10,9,8,9,9,9,9,43,129,135,133,125,0,5,12,11,4,8,8,8,8,43,132,122,119,120,0,10,14,13,9,10,10,10,10,43,135,128,126,133,0,12,0,1,11,8,8,8,8,42,130,124,131,0,6,3,15,11,11,11,43,124,123,134,131,0,3,7,8,15,9,9,9,9,42,122,121,119,0,14,16,13,9,9,9,42,145,144,143,0,0,2,1,8,8,8,43,141,147,146,142,0,3,6,5,4,8,8,8,8,43,140,149,137,151,0,7,10,9,8,9,9,9,9,43,146,152,150,142,0,5,12,11,4,8,8,8,8,43,149,139,136,137,0,10,14,13,9,9,9,9,9,43,152,145,143,150,0,12,0,1,11,8,8,8,8,42,147,141,148,0,6,3,15,11,11,11,43,141,140,151,148,0,3,7,8,15,9,9,9,9,42,139,138,136,0,14,16,13,9,9,9,42,162,161,160,0,0,2,1,8,8,8,43,158,164,163,159,0,3,6,5,4,8,8,8,8,43,157,166,154,168,0,7,10,9,8,9,9,9,9,43,163,169,167,159,0,5,12,11,4,8,8,8,8,43,166,156,153,154,0,10,14,13,9,9,9,9,9,43,169,162,160,167,0,12,0,1,11,8,8,8,8,42,164,158,165,0,6,3,15,13,13,13,43,158,157,168,165,0,3,7,8,15,14,14,14,14,42,156,155,153,0,14,16,13,9,9,9,43,0,1,86,85,0,13,9,9,13,15,15,15,15,43,1,15,100,86,0,9,8,8,9,16,16,16,16,43,2,0,85,87,0,16,13,13,16,17,17,17,17,43,3,2,87,88,0,14,16,16,14,18,18,18,18,43,13,3,88,98,0,10,14,14,10,19,19,19,19,43,4,13,98,89,0,7,10,10,7,20,20,20,20,43,5,4,89,90,0,3,7,7,3,20,20,20,20,43,6,5,90,91,0,4,3,3,4,20,20,20,20,43,14,6,91,99,0,11,4,4,11,20,20,20,20,43,7,14,99,92,0,1,11,11,1,21,21,21,21,43,8,7,92,93,0,2,1,1,2,22,22,22,22,43,9,8,93,94,0,0,2,2,0,23,23,23,23,43,16,9,94,101,0,12,0,0,12,24,24,24,24,43,10,16,101,95,0,5,12,12,5,25,25,25,25,43,11,10,95,96,0,6,5,5,6,26,26,26,26,43,12,11,96,97,0,15,6,6,15,27,27,27,27,43,15,12,97,100,0,8,15,15,8,28,28,28,28,43,17,18,103,102,0,13,9,9,13,29,29,29,29,43,18,32,117,103,0,9,8,8,9,30,30,30,30,43,19,17,102,104,0,16,13,13,16,31,31,31,31,43,20,19,104,105,0,14,16,16,14,32,32,32,32,43,30,20,105,115,0,10,14,14,10,33,33,33,33,43,21,30,115,106,0,7,10,10,7,20,20,20,20,43,22,21,106,107,0,3,7,7,3,34,34,34,34,43,23,22,107,108,0,4,3,3,4,35,35,35,35,43,31,23,108,116,0,11,4,4,11,20,20,20,20,43,24,31,116,109,0,1,11,11,1,36,36,36,36,43,25,24,109,110,0,2,1,1,2,37,37,37,37,43,26,25,110,111,0,0,2,2,0,38,38,38,38,43,33,26,111,118,0,12,0,0,12,39,39,39,39,43,27,33,118,112,0,5,12,12,5,40,40,40,40,43,28,27,112,113,0,6,5,5,6,41,41,41,41,43,29,28,113,114,0,15,6,6,15,42,42,42,42,43,32,29,114,117,0,8,15,15,8,43,43,43,43,43,34,35,120,119,0,13,9,9,13,15,15,15,15,43,35,49,134,120,0,9,8,8,9,16,16,16,16,43,36,34,119,121,0,16,13,13,16,17,17,17,17,43,37,36,121,122,0,14,16,16,14,18,18,18,18,43,47,37,122,132,0,10,14,14,10,19,19,19,19,43,38,47,132,123,0,7,10,10,7,20,20,20,20,43,39,38,123,124,0,3,7,7,3,20,20,20,20,43,40,39,124,125,0,4,3,3,4,35,35,35,35,43,48,40,125,133,0,11,4,4,11,20,20,20,20,43,41,48,133,126,0,1,11,11,1,44,44,44,44,43,42,41,126,127,0,2,1,1,2,45,45,45,45,43,43,42,127,128,0,0,2,2,0,46,46,46,46,43,50,43,128,135,0,12,0,0,12,39,39,39,39,43,44,50,135,129,0,5,12,12,5,47,47,47,47,43,45,44,129,130,0,6,5,5,6,41,41,41,41,43,46,45,130,131,0,15,6,6,15,42,42,42,42,43,49,46,131,134,0,8,15,15,8,48,48,48,48,43,51,52,137,136,0,13,9,9,13,49,49,49,49,43,52,66,151,137,0,9,8,8,9,16,16,16,16,43,53,51,136,138,0,16,13,13,16,50,50,50,50,43,54,53,138,139,0,14,16,16,14,51,51,51,51,43,64,54,139,149,0,10,14,14,10,52,52,52,52,43,55,64,149,140,0,7,10,10,7,20,20,20,20,43,56,55,140,141,0,3,7,7,3,20,20,20,20,43,57,56,141,142,0,4,3,3,4,20,20,20,20,43,65,57,142,150,0,11,4,4,11,20,20,20,20,43,58,65,150,143,0,1,11,11,1,21,21,21,21,43,59,58,143,144,0,2,1,1,2,37,37,37,37,43,60,59,144,145,0,0,2,2,0,53,53,53,53,43,67,60,145,152,0,12,0,0,12,39,39,39,39,43,61,67,152,146,0,5,12,12,5,54,54,54,54,43,62,61,146,147,0,6,5,5,6,55,55,55,55,43,63,62,147,148,0,15,6,6,15,56,56,56,56,43,66,63,148,151,0,8,15,15,8,28,28,28,28,43,68,69,154,153,0,13,9,9,13,15,15,15,15,43,69,83,168,154,0,9,8,8,9,57,57,57,57,43,70,68,153,155,0,16,13,13,16,17,17,17,17,43,71,70,155,156,0,14,16,16,14,18,18,18,18,43,81,71,156,166,0,10,14,14,10,58,58,58,58,43,72,81,166,157,0,7,10,10,7,20,20,20,20,43,73,72,157,158,0,3,7,7,3,20,20,20,20,43,74,73,158,159,0,4,3,3,4,20,20,20,20,43,82,74,159,167,0,11,4,4,11,20,20,20,20,43,75,82,167,160,0,1,11,11,1,59,59,59,59,43,76,75,160,161,0,2,1,1,2,60,60,60,60,43,77,76,161,162,0,0,2,2,0,61,61,61,61,43,84,77,162,169,0,12,0,0,12,62,62,62,62,43,78,84,169,163,0,5,12,12,5,25,25,25,25,43,79,78,163,164,0,6,5,5,6,55,55,55,55,43,80,79,164,165,0,15,6,6,15,63,63,63,63,43,83,80,165,168,0,8,15,15,8,28,28,28,28],
    "metadata":{
        "uvs":1,
        "vertices":170,
        "generator":"io_three",
        "colors":0,
        "normals":64,
        "faces":175,
        "type":"Geometry",
        "version":3,
        "materials":1
    },
    "colors":[],
    "uvs":[[0.813206,0.96769,0.968406,0.883843,0.941692,0.959315,0.69274,0.436357,0.833691,0.606539,0.554935,0.769981,0.494377,0.617952,0.550922,0.265129,0.179914,0.541862,0.0861498,0.413817,0.395323,0.0772596,0.953484,0.751177,0.690399,0.908749,0.044262,0.251329,0.235831,0.0360506,0.356323,0.628798,0.0768947,0.0973188]]
}