{
    "normals":[0,0,-1,0,-0,-1,-0,0,-1,2.25164e-06,-3.56146e-07,-1,0,0,-1,-0,0,-1,-0,-0,-1,5.4012e-06,8.26731e-07,-1,3.0915e-06,1.84846e-06,-1,1.85031e-06,5.80848e-07,-1,7.78393e-06,-1.54869e-06,-1,-0,-0,-1,9.99044e-06,4.95686e-07,-1,1.96119e-06,8.00992e-07,-1,0,-0,1,-0,0,1,0,0,1,-2.25164e-06,3.56146e-07,1,0,0,1,0,-0,1,-5.4012e-06,-8.26731e-07,1,-3.0915e-06,-1.84846e-06,1,-1.85031e-06,-5.80848e-07,1,-7.78393e-06,1.54869e-06,1,-9.99044e-06,-4.95686e-07,1,-1.96119e-06,-8.00992e-07,1,0.425418,0.904997,0,0.0596253,0.998221,0,0.783651,0.621201,0,0.948037,-0.318159,0,0.586092,-0.810244,0,0,-1,-0,-0.547791,-0.836615,0,-0.858282,-0.513178,0,-0.810009,0.586417,0,-0.418321,0.9083,0,-0.081542,0.99667,0,0.307589,0.951519,0,-0.817743,0.575584,0,-0.408853,0.9126,0,0.425419,0.904996,0,0.0596252,0.998221,0,0.783652,0.621201,0,0.948038,-0.318158,0,0.586093,-0.810244,0,0,-1,-0,-0.54779,-0.836616,0,-0.858283,-0.513177,0,-0.810008,0.586419,0,-0.418323,0.908298,0,-0.0815408,0.99667,0,0.30759,0.951519,0,-0.817741,0.575586,0,-0.408853,0.9126,0,0.586092,-0.810244,0,-0.547792,-0.836615,0,-0.858281,-0.513181,0,-0.810008,0.586419,0,-0.0815397,0.99667,0,-0.408853,0.9126,0,0.0596253,0.998221,0,0.783651,0.621201,0,0.948037,-0.318159,0,0.586092,-0.810244,0,-0.547791,-0.836615,0,-0.858283,-0.513177,0,-0.810008,0.586418,0,-0.0815409,0.99667,0,0.307589,0.951519,0,0.0596252,0.998221,0,0.586092,-0.810245,0,-0.810008,0.586419,0,-0.418323,0.908298,0],
    "vertices":[25.3696,38.4295,45,24.0104,39.0684,45,26.2449,37.3253,45,25.7598,35.88,45,22.3819,35.0159,45,20.392,35.0159,45,18.4143,35.0159,45,15.7338,35.6704,45,15.3661,36.2854,45,16.0419,37.2189,45,18.8791,37.8704,45,20.2728,37.4199,45,20.9861,38.4334,45,24.5652,35.0159,45,16.7334,35.0159,45,22.5925,39.1531,45,17.1492,37.7289,45,-18.0524,28.6695,45,-19.4116,29.3084,45,-17.1771,27.5653,45,-17.6622,26.12,45,-21.0401,25.2559,45,-23.0299,25.2559,45,-25.0077,25.2559,45,-27.6882,25.9105,45,-28.0559,26.5255,45,-27.3801,27.4589,45,-24.5429,28.1105,45,-23.1492,27.6599,45,-22.4358,28.6735,45,-18.8568,25.2559,45,-26.6886,25.2559,45,-20.8295,29.3931,45,-26.2728,27.9689,45,-8.09325,41.4173,45,-9.4524,42.0562,45,-7.21797,40.3131,45,-7.70301,38.8678,45,-11.0809,38.0037,45,-13.0708,38.0037,45,-15.0485,38.0037,45,-17.729,38.6582,45,-18.0968,39.2732,45,-17.421,40.2067,45,-14.5837,40.8582,45,-13.1901,40.4077,45,-12.4767,41.4212,45,-8.89759,38.0037,45,-16.7294,38.0037,45,-10.8703,42.1409,45,-16.3136,40.7167,45,4.05694,29.2671,45,2.69779,29.906,45,4.93222,28.1629,45,4.44718,26.7176,45,1.06931,25.8535,45,-0.920585,25.8535,45,-2.89832,25.8535,45,-5.57885,26.508,45,-5.94656,27.123,45,-5.27076,28.0565,45,-2.43351,28.708,45,-1.03986,28.2575,45,-0.32648,29.271,45,3.25259,25.8535,45,-4.5792,25.8535,45,1.27988,29.9907,45,-4.16339,28.5665,45,10.4308,49.1854,45,9.07166,49.8243,45,11.3061,48.0812,45,10.8211,46.6359,45,7.44318,45.7718,45,5.45329,45.7718,45,3.47555,45.7718,45,0.795025,46.4264,45,0.427312,47.0414,45,1.10311,47.9748,45,3.94036,48.6264,45,5.33401,48.1758,45,6.04739,49.1894,45,9.62647,45.7718,45,1.79467,45.7718,45,7.65375,49.909,45,2.21048,48.4848,45,25.3696,38.4295,45.05,24.0104,39.0684,45.05,26.2449,37.3253,45.05,25.7598,35.88,45.05,22.3819,35.0159,45.05,20.392,35.0159,45.05,18.4143,35.0159,45.05,15.7338,35.6704,45.05,15.3661,36.2854,45.05,16.0419,37.2189,45.05,18.8791,37.8704,45.05,20.2728,37.4199,45.05,20.9861,38.4334,45.05,24.5652,35.0159,45.05,16.7334,35.0159,45.05,22.5925,39.1531,45.05,17.1492,37.7289,45.05,-18.0524,28.6695,45.05,-19.4116,29.3084,45.05,-17.1771,27.5653,45.05,-17.6622,26.12,45.05,-21.0401,25.2559,45.05,-23.0299,25.2559,45.05,-25.0077,25.2559,45.05,-27.6882,25.9105,45.05,-28.0559,26.5255,45.05,-27.3801,27.4589,45.05,-24.5429,28.1105,45.05,-23.1492,27.6599,45.05,-22.4358,28.6735,45.05,-18.8568,25.2559,45.05,-26.6886,25.2559,45.05,-20.8295,29.3931,45.05,-26.2728,27.9689,45.05,-8.09325,41.4173,45.05,-9.4524,42.0562,45.05,-7.21797,40.3131,45.05,-7.70301,38.8678,45.05,-11.0809,38.0037,45.05,-13.0708,38.0037,45.05,-15.0485,38.0037,45.05,-17.729,38.6582,45.05,-18.0968,39.2732,45.05,-17.421,40.2067,45.05,-14.5837,40.8582,45.05,-13.1901,40.4077,45.05,-12.4767,41.4212,45.05,-8.89759,38.0037,45.05,-16.7294,38.0037,45.05,-10.8703,42.1409,45.05,-16.3136,40.7167,45.05,4.05694,29.2671,45.05,2.69779,29.906,45.05,4.93222,28.1629,45.05,4.44718,26.7176,45.05,1.06931,25.8535,45.05,-0.920585,25.8535,45.05,-2.89832,25.8535,45.05,-5.57885,26.508,45.05,-5.94656,27.123,45.05,-5.27076,28.0565,45.05,-2.43351,28.708,45.05,-1.03986,28.2575,45.05,-0.32648,29.271,45.05,3.25259,25.8535,45.05,-4.5792,25.8535,45.05,1.27988,29.9907,45.05,-4.16339,28.5665,45.05,10.4308,49.1854,45.05,9.07166,49.8243,45.05,11.3061,48.0812,45.05,10.8211,46.6359,45.05,7.44318,45.7718,45.05,5.45329,45.7718,45.05,3.47555,45.7718,45.05,0.795025,46.4264,45.05,0.427312,47.0414,45.05,1.10311,47.9748,45.05,3.94036,48.6264,45.05,5.33401,48.1758,45.05,6.04739,49.1894,45.05,9.62647,45.7718,45.05,1.79467,45.7718,45.05,7.65375,49.909,45.05,2.21048,48.4848,45.05],
    "materials":[{
        "blending":1,
        "DbgName":"Material.003",
        "doubleSided":false,
        "opacity":1,
        "DbgColor":15658734,
        "mapDiffuseAnisotropy":1,
        "wireframe":false,
        "DbgIndex":0,
        "mapDiffuse":"nube.png",
        "depthWrite":true,
        "visible":true,
        "shading":"basic",
        "depthTest":true,
        "vertexColors":false,
        "colorEmissive":[0,0,0],
        "colorDiffuse":[0.8,0.8,0.8],
        "mapDiffuseRepeat":[1,1],
        "mapDiffuseWrap":["repeat","repeat"],
        "transparent":false
    }],
    "faces":[42,9,7,8,0,0,1,2,0,0,0,43,5,6,10,11,0,3,4,5,6,1,1,1,1,43,4,15,1,13,0,7,8,9,10,2,2,2,2,43,10,6,14,16,0,5,4,11,12,3,3,3,3,43,0,3,13,1,0,13,14,10,9,4,4,4,4,43,16,14,7,9,0,12,11,1,0,0,0,0,0,42,11,12,5,0,6,15,3,5,5,5,43,5,12,15,4,0,3,15,8,7,2,2,2,2,42,3,0,2,0,14,13,16,6,6,6,42,26,24,25,0,0,1,2,4,4,4,43,22,23,27,28,0,3,4,5,6,1,1,1,1,43,21,32,18,30,0,7,8,9,10,2,2,2,2,43,27,23,31,33,0,5,4,11,12,0,0,0,0,43,30,18,17,20,0,10,9,13,14,2,2,2,2,43,33,31,24,26,0,12,11,1,0,4,4,4,4,42,28,29,22,0,6,15,3,2,2,2,43,22,29,32,21,0,3,15,8,7,5,5,5,5,42,20,17,19,0,14,13,16,7,7,7,42,43,41,42,0,0,1,2,8,8,8,43,39,40,44,45,0,3,4,5,6,1,1,1,1,43,38,49,35,47,0,7,8,9,10,2,2,2,2,43,44,40,48,50,0,5,4,11,12,0,0,0,0,43,47,35,34,37,0,10,9,13,14,2,2,2,2,43,50,48,41,43,0,12,11,1,0,9,9,9,9,42,45,46,39,0,6,15,3,2,2,2,43,39,46,49,38,0,3,15,8,7,2,2,2,2,42,37,34,36,0,14,13,16,6,6,6,42,60,58,59,0,0,1,2,10,10,10,43,56,57,61,62,0,3,4,5,6,1,1,1,1,43,55,66,52,64,0,7,8,9,10,2,2,2,2,43,61,57,65,67,0,5,4,11,12,0,0,0,0,43,64,52,51,54,0,10,9,13,14,2,2,2,2,43,67,65,58,60,0,12,11,1,0,0,0,0,0,42,62,63,56,0,6,15,3,5,5,5,43,56,63,66,55,0,3,15,8,7,2,2,2,2,42,54,51,53,0,14,13,16,11,11,11,42,77,75,76,0,0,1,2,4,4,4,43,73,74,78,79,0,3,4,5,6,1,1,1,1,43,72,83,69,81,0,7,8,9,10,2,2,2,2,43,78,74,82,84,0,5,4,11,12,0,0,0,0,43,81,69,68,71,0,10,9,13,14,2,2,2,2,43,84,82,75,77,0,12,11,1,0,0,0,0,0,42,79,80,73,0,6,15,3,12,12,12,43,73,80,83,72,0,3,15,8,7,13,13,13,13,42,71,68,70,0,14,13,16,6,6,6,42,94,93,92,0,0,2,1,14,14,14,43,90,96,95,91,0,3,6,5,4,15,15,15,15,43,89,98,86,100,0,7,10,9,8,16,16,16,16,43,95,101,99,91,0,5,12,11,4,17,17,17,17,43,98,88,85,86,0,10,14,13,9,18,18,18,18,43,101,94,92,99,0,12,0,1,11,14,14,14,14,42,96,90,97,0,6,3,15,16,16,16,43,90,89,100,97,0,3,7,8,15,16,16,16,16,42,88,87,85,0,14,16,13,16,16,16,42,111,110,109,0,0,2,1,14,14,14,43,107,113,112,108,0,3,6,5,4,15,15,15,15,43,106,115,103,117,0,7,10,9,8,16,16,16,16,43,112,118,116,108,0,5,12,11,4,14,14,14,14,43,115,105,102,103,0,10,14,13,9,16,16,16,16,43,118,111,109,116,0,12,0,1,11,19,19,19,19,42,113,107,114,0,6,3,15,16,16,16,43,107,106,117,114,0,3,7,8,15,18,18,18,18,42,105,104,102,0,14,16,13,20,20,20,42,128,127,126,0,0,2,1,21,21,21,43,124,130,129,125,0,3,6,5,4,15,15,15,15,43,123,132,120,134,0,7,10,9,8,16,16,16,16,43,129,135,133,125,0,5,12,11,4,14,14,14,14,43,132,122,119,120,0,10,14,13,9,16,16,16,16,43,135,128,126,133,0,12,0,1,11,22,22,22,22,42,130,124,131,0,6,3,15,16,16,16,43,124,123,134,131,0,3,7,8,15,16,16,16,16,42,122,121,119,0,14,16,13,16,16,16,42,145,144,143,0,0,2,1,23,23,23,43,141,147,146,142,0,3,6,5,4,15,15,15,15,43,140,149,137,151,0,7,10,9,8,16,16,16,16,43,146,152,150,142,0,5,12,11,4,14,14,14,14,43,149,139,136,137,0,10,14,13,9,16,16,16,16,43,152,145,143,150,0,12,0,1,11,14,14,14,14,42,147,141,148,0,6,3,15,16,16,16,43,141,140,151,148,0,3,7,8,15,16,16,16,16,42,139,138,136,0,14,16,13,18,18,18,42,162,161,160,0,0,2,1,19,19,19,43,158,164,163,159,0,3,6,5,4,15,15,15,15,43,157,166,154,168,0,7,10,9,8,16,16,16,16,43,163,169,167,159,0,5,12,11,4,14,14,14,14,43,166,156,153,154,0,10,14,13,9,16,16,16,16,43,169,162,160,167,0,12,0,1,11,14,14,14,14,42,164,158,165,0,6,3,15,24,24,24,43,158,157,168,165,0,3,7,8,15,25,25,25,25,42,156,155,153,0,14,16,13,16,16,16,43,0,1,86,85,0,13,9,9,13,26,26,26,26,43,1,15,100,86,0,9,8,8,9,27,27,27,27,43,2,0,85,87,0,16,13,13,16,28,28,28,28,43,3,2,87,88,0,14,16,16,14,29,29,29,29,43,13,3,88,98,0,10,14,14,10,30,30,30,30,43,4,13,98,89,0,7,10,10,7,31,31,31,31,43,5,4,89,90,0,3,7,7,3,31,31,31,31,43,6,5,90,91,0,4,3,3,4,31,31,31,31,43,14,6,91,99,0,11,4,4,11,31,31,31,31,43,7,14,99,92,0,1,11,11,1,32,32,32,32,43,8,7,92,93,0,2,1,1,2,33,33,33,33,43,9,8,93,94,0,0,2,2,0,34,34,34,34,43,16,9,94,101,0,12,0,0,12,35,35,35,35,43,10,16,101,95,0,5,12,12,5,36,36,36,36,43,11,10,95,96,0,6,5,5,6,37,37,37,37,43,12,11,96,97,0,15,6,6,15,38,38,38,38,43,15,12,97,100,0,8,15,15,8,39,39,39,39,43,17,18,103,102,0,13,9,9,13,40,40,40,40,43,18,32,117,103,0,9,8,8,9,41,41,41,41,43,19,17,102,104,0,16,13,13,16,42,42,42,42,43,20,19,104,105,0,14,16,16,14,43,43,43,43,43,30,20,105,115,0,10,14,14,10,44,44,44,44,43,21,30,115,106,0,7,10,10,7,31,31,31,31,43,22,21,106,107,0,3,7,7,3,31,31,31,31,43,23,22,107,108,0,4,3,3,4,45,45,45,45,43,31,23,108,116,0,11,4,4,11,31,31,31,31,43,24,31,116,109,0,1,11,11,1,46,46,46,46,43,25,24,109,110,0,2,1,1,2,47,47,47,47,43,26,25,110,111,0,0,2,2,0,48,48,48,48,43,33,26,111,118,0,12,0,0,12,49,49,49,49,43,27,33,118,112,0,5,12,12,5,50,50,50,50,43,28,27,112,113,0,6,5,5,6,51,51,51,51,43,29,28,113,114,0,15,6,6,15,52,52,52,52,43,32,29,114,117,0,8,15,15,8,53,53,53,53,43,34,35,120,119,0,13,9,9,13,26,26,26,26,43,35,49,134,120,0,9,8,8,9,27,27,27,27,43,36,34,119,121,0,16,13,13,16,42,42,42,42,43,37,36,121,122,0,14,16,16,14,29,29,29,29,43,47,37,122,132,0,10,14,14,10,54,54,54,54,43,38,47,132,123,0,7,10,10,7,31,31,31,31,43,39,38,123,124,0,3,7,7,3,31,31,31,31,43,40,39,124,125,0,4,3,3,4,45,45,45,45,43,48,40,125,133,0,11,4,4,11,31,31,31,31,43,41,48,133,126,0,1,11,11,1,55,55,55,55,43,42,41,126,127,0,2,1,1,2,56,56,56,56,43,43,42,127,128,0,0,2,2,0,57,57,57,57,43,50,43,128,135,0,12,0,0,12,49,49,49,49,43,44,50,135,129,0,5,12,12,5,58,58,58,58,43,45,44,129,130,0,6,5,5,6,51,51,51,51,43,46,45,130,131,0,15,6,6,15,52,52,52,52,43,49,46,131,134,0,8,15,15,8,59,59,59,59,43,51,52,137,136,0,13,9,9,13,40,40,40,40,43,52,66,151,137,0,9,8,8,9,60,60,60,60,43,53,51,136,138,0,16,13,13,16,61,61,61,61,43,54,53,138,139,0,14,16,16,14,62,62,62,62,43,64,54,139,149,0,10,14,14,10,63,63,63,63,43,55,64,149,140,0,7,10,10,7,31,31,31,31,43,56,55,140,141,0,3,7,7,3,31,31,31,31,43,57,56,141,142,0,4,3,3,4,31,31,31,31,43,65,57,142,150,0,11,4,4,11,31,31,31,31,43,58,65,150,143,0,1,11,11,1,64,64,64,64,43,59,58,143,144,0,2,1,1,2,65,65,65,65,43,60,59,144,145,0,0,2,2,0,66,66,66,66,43,67,60,145,152,0,12,0,0,12,49,49,49,49,43,61,67,152,146,0,5,12,12,5,67,67,67,67,43,62,61,146,147,0,6,5,5,6,68,68,68,68,43,63,62,147,148,0,15,6,6,15,38,38,38,38,43,66,63,148,151,0,8,15,15,8,39,39,39,39,43,68,69,154,153,0,13,9,9,13,26,26,26,26,43,69,83,168,154,0,9,8,8,9,69,69,69,69,43,70,68,153,155,0,16,13,13,16,28,28,28,28,43,71,70,155,156,0,14,16,16,14,29,29,29,29,43,81,71,156,166,0,10,14,14,10,70,70,70,70,43,72,81,166,157,0,7,10,10,7,31,31,31,31,43,73,72,157,158,0,3,7,7,3,31,31,31,31,43,74,73,158,159,0,4,3,3,4,31,31,31,31,43,82,74,159,167,0,11,4,4,11,31,31,31,31,43,75,82,167,160,0,1,11,11,1,64,64,64,64,43,76,75,160,161,0,2,1,1,2,47,47,47,47,43,77,76,161,162,0,0,2,2,0,71,71,71,71,43,84,77,162,169,0,12,0,0,12,72,72,72,72,43,78,84,169,163,0,5,12,12,5,36,36,36,36,43,79,78,163,164,0,6,5,5,6,37,37,37,37,43,80,79,164,165,0,15,6,6,15,38,38,38,38,43,83,80,165,168,0,8,15,15,8,39,39,39,39],
    "metadata":{
        "uvs":1,
        "vertices":170,
        "generator":"io_three",
        "colors":0,
        "normals":73,
        "faces":175,
        "type":"Geometry",
        "version":3,
        "materials":1
    },
    "colors":[],
    "uvs":[[0.813206,0.96769,0.968406,0.883843,0.941692,0.959315,0.69274,0.436357,0.833691,0.606539,0.554935,0.769981,0.494377,0.617952,0.550922,0.265129,0.179914,0.541862,0.0861498,0.413817,0.395323,0.0772596,0.953484,0.751177,0.690399,0.908749,0.044262,0.251329,0.235831,0.0360506,0.356323,0.628798,0.0768947,0.0973188]]
}